<define-tag pagetitle>DLA-2949-1 spip</define-tag>
<define-tag report_date>2022-03-15</define-tag>
<define-tag secrefs>CVE-2022-26846 CVE-2022-26847</define-tag>
<define-tag packages>spip</define-tag>
<define-tag isvulnerable>yes</define-tag>
<define-tag fixed>yes</define-tag>
<define-tag fixed-section>no</define-tag>

#use wml::debian::security

