<define-tag pagetitle>DSA-4720-1 roundcube</define-tag>
<define-tag report_date>2020-7-08</define-tag>
<define-tag secrefs>CVE-2020-15562 Bug#964355</define-tag>
<define-tag packages>roundcube</define-tag>
<define-tag isvulnerable>yes</define-tag>
<define-tag fixed>yes</define-tag>
<define-tag fixed-section>no</define-tag>

#use wml::debian::security



</dl>
