<define-tag pagetitle>DSA-4760-1 qemu</define-tag>
<define-tag report_date>2020-9-06</define-tag>
<define-tag secrefs>CVE-2020-12829 CVE-2020-14364 CVE-2020-15863 CVE-2020-16092 Bug#961451 Bug#968947</define-tag>
<define-tag packages>qemu</define-tag>
<define-tag isvulnerable>yes</define-tag>
<define-tag fixed>yes</define-tag>
<define-tag fixed-section>no</define-tag>

#use wml::debian::security



</dl>
