<define-tag pagetitle>DLA-2721-1 drupal7</define-tag>
<define-tag report_date>2021-7-26</define-tag>
<define-tag secrefs>CVE-2021-32610</define-tag>
<define-tag packages>drupal7</define-tag>
<define-tag isvulnerable>yes</define-tag>
<define-tag fixed>yes</define-tag>
<define-tag fixed-section>no</define-tag>

#use wml::debian::security

