<define-tag pagetitle>DLA-2447-2 pacemaker</define-tag>
<define-tag report_date>2020-11-17</define-tag>
<define-tag secrefs>Bug#974563</define-tag>
<define-tag packages>pacemaker</define-tag>
<define-tag isvulnerable>yes</define-tag>
<define-tag fixed>yes</define-tag>
<define-tag fixed-section>no</define-tag>

#use wml::debian::security

