<define-tag pagetitle>DLA-1302-1 leptonlib</define-tag>
<define-tag report_date>2018-3-7</define-tag>
<define-tag secrefs>CVE-2018-7186 CVE-2018-7440 Bug#890548 Bug#891932</define-tag>
<define-tag packages>leptonlib</define-tag>
<define-tag isvulnerable>yes</define-tag>
<define-tag fixed>yes</define-tag>
<define-tag fixed-section>no</define-tag>

#use wml::debian::security

