<define-tag pagetitle>DLA-1406-1 firefox-esr</define-tag>
<define-tag report_date>2018-6-29</define-tag>
<define-tag secrefs>CVE-2018-5156 CVE-2018-5188 CVE-2018-12359 CVE-2018-12360 CVE-2018-12362 CVE-2018-12363 CVE-2018-12364 CVE-2018-12365 CVE-2018-12366</define-tag>
<define-tag packages>firefox-esr</define-tag>
<define-tag isvulnerable>yes</define-tag>
<define-tag fixed>yes</define-tag>
<define-tag fixed-section>no</define-tag>

#use wml::debian::security

