<define-tag pagetitle>DSA-4522-1 faad2</define-tag>
<define-tag report_date>2019-9-15</define-tag>
<define-tag secrefs>CVE-2018-19502 CVE-2018-19503 CVE-2018-19504 CVE-2018-20194 CVE-2018-20195 CVE-2018-20197 CVE-2018-20198 CVE-2018-20357 CVE-2018-20358 CVE-2018-20359 CVE-2018-20361 CVE-2018-20362 CVE-2019-15296 Bug#914641</define-tag>
<define-tag packages>faad2</define-tag>
<define-tag isvulnerable>yes</define-tag>
<define-tag fixed>yes</define-tag>
<define-tag fixed-section>no</define-tag>

#use wml::debian::security



</dl>
