<define-tag pagetitle>DSA-4517-1 exim4</define-tag>
<define-tag report_date>2019-9-06</define-tag>
<define-tag secrefs>CVE-2019-15846</define-tag>
<define-tag packages>exim4</define-tag>
<define-tag isvulnerable>yes</define-tag>
<define-tag fixed>yes</define-tag>
<define-tag fixed-section>no</define-tag>

#use wml::debian::security



</dl>
