<define-tag pagetitle>DLA-2038-1 libssh</define-tag>
<define-tag report_date>2019-12-17</define-tag>
<define-tag secrefs>CVE-2019-14889 Bug#946548</define-tag>
<define-tag packages>libssh</define-tag>
<define-tag isvulnerable>yes</define-tag>
<define-tag fixed>yes</define-tag>
<define-tag fixed-section>no</define-tag>

#use wml::debian::security

